<?xml version="1.0" encoding="UTF-8"?>
<testsuite xmlns:xsi="http://www.w3.org/2001/XMLSchema-instance" xsi:noNamespaceSchemaLocation="https://maven.apache.org/surefire/maven-surefire-plugin/xsd/surefire-test-report-3.0.xsd" version="3.0" name="org.training.apacheflink.ApacheFlinkApplicationTests" time="10.224" tests="1" errors="0" skipped="0" failures="0">
  <properties>
    <property name="java.specification.version" value="17"/>
    <property name="sun.cpu.isalist" value="amd64"/>
    <property name="sun.jnu.encoding" value="Cp1252"/>
    <property name="java.class.path" value="C:\Users\karthikbanu.kulkarni\OneDrive - HCL TECHNOLOGIES LIMITED\GitLab\apache-flink\apache-flink\target\test-classes;C:\Users\karthikbanu.kulkarni\OneDrive - HCL TECHNOLOGIES LIMITED\GitLab\apache-flink\apache-flink\target\classes;C:\Users\karthikbanu.kulkarni\.m2\repository\org\springframework\boot\spring-boot-starter-web\3.2.5\spring-boot-starter-web-3.2.5.jar;C:\Users\karthikbanu.kulkarni\.m2\repository\org\springframework\boot\spring-boot-starter\3.2.5\spring-boot-starter-3.2.5.jar;C:\Users\karthikbanu.kulkarni\.m2\repository\org\springframework\boot\spring-boot-starter-logging\3.2.5\spring-boot-starter-logging-3.2.5.jar;C:\Users\karthikbanu.kulkarni\.m2\repository\ch\qos\logback\logback-classic\1.4.14\logback-classic-1.4.14.jar;C:\Users\karthikbanu.kulkarni\.m2\repository\ch\qos\logback\logback-core\1.4.14\logback-core-1.4.14.jar;C:\Users\karthikbanu.kulkarni\.m2\repository\org\apache\logging\log4j\log4j-to-slf4j\2.21.1\log4j-to-slf4j-2.21.1.jar;C:\Users\karthikbanu.kulkarni\.m2\repository\org\apache\logging\log4j\log4j-api\2.21.1\log4j-api-2.21.1.jar;C:\Users\karthikbanu.kulkarni\.m2\repository\org\slf4j\jul-to-slf4j\2.0.13\jul-to-slf4j-2.0.13.jar;C:\Users\karthikbanu.kulkarni\.m2\repository\jakarta\annotation\jakarta.annotation-api\2.1.1\jakarta.annotation-api-2.1.1.jar;C:\Users\karthikbanu.kulkarni\.m2\repository\org\yaml\snakeyaml\2.2\snakeyaml-2.2.jar;C:\Users\karthikbanu.kulkarni\.m2\repository\org\springframework\boot\spring-boot-starter-json\3.2.5\spring-boot-starter-json-3.2.5.jar;C:\Users\karthikbanu.kulkarni\.m2\repository\com\fasterxml\jackson\core\jackson-databind\2.15.4\jackson-databind-2.15.4.jar;C:\Users\karthikbanu.kulkarni\.m2\repository\com\fasterxml\jackson\core\jackson-annotations\2.15.4\jackson-annotations-2.15.4.jar;C:\Users\karthikbanu.kulkarni\.m2\repository\com\fasterxml\jackson\core\jackson-core\2.15.4\jackson-core-2.15.4.jar;C:\Users\karthikbanu.kulkarni\.m2\repository\com\fasterxml\jackson\datatype\jackson-datatype-jdk8\2.15.4\jackson-datatype-jdk8-2.15.4.jar;C:\Users\karthikbanu.kulkarni\.m2\repository\com\fasterxml\jackson\datatype\jackson-datatype-jsr310\2.15.4\jackson-datatype-jsr310-2.15.4.jar;C:\Users\karthikbanu.kulkarni\.m2\repository\com\fasterxml\jackson\module\jackson-module-parameter-names\2.15.4\jackson-module-parameter-names-2.15.4.jar;C:\Users\karthikbanu.kulkarni\.m2\repository\org\springframework\boot\spring-boot-starter-tomcat\3.2.5\spring-boot-starter-tomcat-3.2.5.jar;C:\Users\karthikbanu.kulkarni\.m2\repository\org\apache\tomcat\embed\tomcat-embed-core\10.1.20\tomcat-embed-core-10.1.20.jar;C:\Users\karthikbanu.kulkarni\.m2\repository\org\apache\tomcat\embed\tomcat-embed-el\10.1.20\tomcat-embed-el-10.1.20.jar;C:\Users\karthikbanu.kulkarni\.m2\repository\org\apache\tomcat\embed\tomcat-embed-websocket\10.1.20\tomcat-embed-websocket-10.1.20.jar;C:\Users\karthikbanu.kulkarni\.m2\repository\org\springframework\spring-web\6.1.6\spring-web-6.1.6.jar;C:\Users\karthikbanu.kulkarni\.m2\repository\org\springframework\spring-beans\6.1.6\spring-beans-6.1.6.jar;C:\Users\karthikbanu.kulkarni\.m2\repository\io\micrometer\micrometer-observation\1.12.5\micrometer-observation-1.12.5.jar;C:\Users\karthikbanu.kulkarni\.m2\repository\io\micrometer\micrometer-commons\1.12.5\micrometer-commons-1.12.5.jar;C:\Users\karthikbanu.kulkarni\.m2\repository\org\springframework\spring-webmvc\6.1.6\spring-webmvc-6.1.6.jar;C:\Users\karthikbanu.kulkarni\.m2\repository\org\springframework\spring-aop\6.1.6\spring-aop-6.1.6.jar;C:\Users\karthikbanu.kulkarni\.m2\repository\org\springframework\spring-context\6.1.6\spring-context-6.1.6.jar;C:\Users\karthikbanu.kulkarni\.m2\repository\org\springframework\spring-expression\6.1.6\spring-expression-6.1.6.jar;C:\Users\karthikbanu.kulkarni\.m2\repository\org\apache\flink\flink-java\1.19.0\flink-java-1.19.0.jar;C:\Users\karthikbanu.kulkarni\.m2\repository\org\apache\flink\flink-core\1.19.0\flink-core-1.19.0.jar;C:\Users\karthikbanu.kulkarni\.m2\repository\org\apache\flink\flink-annotations\1.19.0\flink-annotations-1.19.0.jar;C:\Users\karthikbanu.kulkarni\.m2\repository\org\apache\flink\flink-metrics-core\1.19.0\flink-metrics-core-1.19.0.jar;C:\Users\karthikbanu.kulkarni\.m2\repository\org\apache\flink\flink-shaded-asm-9\9.5-17.0\flink-shaded-asm-9-9.5-17.0.jar;C:\Users\karthikbanu.kulkarni\.m2\repository\org\apache\flink\flink-shaded-jackson\2.14.2-17.0\flink-shaded-jackson-2.14.2-17.0.jar;C:\Users\karthikbanu.kulkarni\.m2\repository\org\snakeyaml\snakeyaml-engine\2.6\snakeyaml-engine-2.6.jar;C:\Users\karthikbanu.kulkarni\.m2\repository\org\apache\commons\commons-text\1.10.0\commons-text-1.10.0.jar;C:\Users\karthikbanu.kulkarni\.m2\repository\com\esotericsoftware\kryo\kryo\2.24.0\kryo-2.24.0.jar;C:\Users\karthikbanu.kulkarni\.m2\repository\com\esotericsoftware\minlog\minlog\1.2\minlog-1.2.jar;C:\Users\karthikbanu.kulkarni\.m2\repository\commons-collections\commons-collections\3.2.2\commons-collections-3.2.2.jar;C:\Users\karthikbanu.kulkarni\.m2\repository\org\apache\commons\commons-compress\1.24.0\commons-compress-1.24.0.jar;C:\Users\karthikbanu.kulkarni\.m2\repository\org\apache\commons\commons-lang3\3.13.0\commons-lang3-3.13.0.jar;C:\Users\karthikbanu.kulkarni\.m2\repository\org\apache\commons\commons-math3\3.6.1\commons-math3-3.6.1.jar;C:\Users\karthikbanu.kulkarni\.m2\repository\com\twitter\chill-java\0.7.6\chill-java-0.7.6.jar;C:\Users\karthikbanu.kulkarni\.m2\repository\org\slf4j\slf4j-api\2.0.13\slf4j-api-2.0.13.jar;C:\Users\karthikbanu.kulkarni\.m2\repository\com\google\code\findbugs\jsr305\1.3.9\jsr305-1.3.9.jar;C:\Users\karthikbanu.kulkarni\.m2\repository\org\apache\flink\flink-streaming-java\1.19.0\flink-streaming-java-1.19.0.jar;C:\Users\karthikbanu.kulkarni\.m2\repository\org\apache\flink\flink-file-sink-common\1.19.0\flink-file-sink-common-1.19.0.jar;C:\Users\karthikbanu.kulkarni\.m2\repository\org\apache\flink\flink-runtime\1.19.0\flink-runtime-1.19.0.jar;C:\Users\karthikbanu.kulkarni\.m2\repository\org\apache\flink\flink-rpc-core\1.19.0\flink-rpc-core-1.19.0.jar;C:\Users\karthikbanu.kulkarni\.m2\repository\org\apache\flink\flink-rpc-akka-loader\1.19.0\flink-rpc-akka-loader-1.19.0.jar;C:\Users\karthikbanu.kulkarni\.m2\repository\org\apache\flink\flink-queryable-state-client-java\1.19.0\flink-queryable-state-client-java-1.19.0.jar;C:\Users\karthikbanu.kulkarni\.m2\repository\org\apache\flink\flink-hadoop-fs\1.19.0\flink-hadoop-fs-1.19.0.jar;C:\Users\karthikbanu.kulkarni\.m2\repository\commons-io\commons-io\2.11.0\commons-io-2.11.0.jar;C:\Users\karthikbanu.kulkarni\.m2\repository\org\apache\flink\flink-shaded-netty\4.1.91.Final-17.0\flink-shaded-netty-4.1.91.Final-17.0.jar;C:\Users\karthikbanu.kulkarni\.m2\repository\org\apache\flink\flink-shaded-zookeeper-3\3.7.1-17.0\flink-shaded-zookeeper-3-3.7.1-17.0.jar;C:\Users\karthikbanu.kulkarni\.m2\repository\org\javassist\javassist\3.24.0-GA\javassist-3.24.0-GA.jar;C:\Users\karthikbanu.kulkarni\.m2\repository\org\xerial\snappy\snappy-java\1.1.10.4\snappy-java-1.1.10.4.jar;C:\Users\karthikbanu.kulkarni\.m2\repository\tools\profiler\async-profiler\2.9\async-profiler-2.9.jar;C:\Users\karthikbanu.kulkarni\.m2\repository\org\lz4\lz4-java\1.8.0\lz4-java-1.8.0.jar;C:\Users\karthikbanu.kulkarni\.m2\repository\org\apache\flink\flink-shaded-guava\31.1-jre-17.0\flink-shaded-guava-31.1-jre-17.0.jar;C:\Users\karthikbanu.kulkarni\.m2\repository\org\apache\flink\flink-connector-datagen\1.19.0\flink-connector-datagen-1.19.0.jar;C:\Users\karthikbanu.kulkarni\.m2\repository\org\apache\flink\flink-clients\1.19.0\flink-clients-1.19.0.jar;C:\Users\karthikbanu.kulkarni\.m2\repository\org\apache\flink\flink-optimizer\1.19.0\flink-optimizer-1.19.0.jar;C:\Users\karthikbanu.kulkarni\.m2\repository\commons-cli\commons-cli\1.5.0\commons-cli-1.5.0.jar;C:\Users\karthikbanu.kulkarni\.m2\repository\org\springframework\boot\spring-boot-devtools\3.2.5\spring-boot-devtools-3.2.5.jar;C:\Users\karthikbanu.kulkarni\.m2\repository\org\springframework\boot\spring-boot\3.2.5\spring-boot-3.2.5.jar;C:\Users\karthikbanu.kulkarni\.m2\repository\org\springframework\boot\spring-boot-autoconfigure\3.2.5\spring-boot-autoconfigure-3.2.5.jar;C:\Users\karthikbanu.kulkarni\.m2\repository\org\projectlombok\lombok\1.18.32\lombok-1.18.32.jar;C:\Users\karthikbanu.kulkarni\.m2\repository\org\springframework\boot\spring-boot-starter-test\3.2.5\spring-boot-starter-test-3.2.5.jar;C:\Users\karthikbanu.kulkarni\.m2\repository\org\springframework\boot\spring-boot-test\3.2.5\spring-boot-test-3.2.5.jar;C:\Users\karthikbanu.kulkarni\.m2\repository\org\springframework\boot\spring-boot-test-autoconfigure\3.2.5\spring-boot-test-autoconfigure-3.2.5.jar;C:\Users\karthikbanu.kulkarni\.m2\repository\com\jayway\jsonpath\json-path\2.9.0\json-path-2.9.0.jar;C:\Users\karthikbanu.kulkarni\.m2\repository\jakarta\xml\bind\jakarta.xml.bind-api\4.0.2\jakarta.xml.bind-api-4.0.2.jar;C:\Users\karthikbanu.kulkarni\.m2\repository\jakarta\activation\jakarta.activation-api\2.1.3\jakarta.activation-api-2.1.3.jar;C:\Users\karthikbanu.kulkarni\.m2\repository\net\minidev\json-smart\2.5.1\json-smart-2.5.1.jar;C:\Users\karthikbanu.kulkarni\.m2\repository\net\minidev\accessors-smart\2.5.1\accessors-smart-2.5.1.jar;C:\Users\karthikbanu.kulkarni\.m2\repository\org\ow2\asm\asm\9.6\asm-9.6.jar;C:\Users\karthikbanu.kulkarni\.m2\repository\org\assertj\assertj-core\3.24.2\assertj-core-3.24.2.jar;C:\Users\karthikbanu.kulkarni\.m2\repository\net\bytebuddy\byte-buddy\1.14.13\byte-buddy-1.14.13.jar;C:\Users\karthikbanu.kulkarni\.m2\repository\org\awaitility\awaitility\4.2.1\awaitility-4.2.1.jar;C:\Users\karthikbanu.kulkarni\.m2\repository\org\hamcrest\hamcrest\2.2\hamcrest-2.2.jar;C:\Users\karthikbanu.kulkarni\.m2\repository\org\junit\jupiter\junit-jupiter\5.10.2\junit-jupiter-5.10.2.jar;C:\Users\karthikbanu.kulkarni\.m2\repository\org\junit\jupiter\junit-jupiter-api\5.10.2\junit-jupiter-api-5.10.2.jar;C:\Users\karthikbanu.kulkarni\.m2\repository\org\opentest4j\opentest4j\1.3.0\opentest4j-1.3.0.jar;C:\Users\karthikbanu.kulkarni\.m2\repository\org\junit\platform\junit-platform-commons\1.10.2\junit-platform-commons-1.10.2.jar;C:\Users\karthikbanu.kulkarni\.m2\repository\org\apiguardian\apiguardian-api\1.1.2\apiguardian-api-1.1.2.jar;C:\Users\karthikbanu.kulkarni\.m2\repository\org\junit\jupiter\junit-jupiter-params\5.10.2\junit-jupiter-params-5.10.2.jar;C:\Users\karthikbanu.kulkarni\.m2\repository\org\junit\jupiter\junit-jupiter-engine\5.10.2\junit-jupiter-engine-5.10.2.jar;C:\Users\karthikbanu.kulkarni\.m2\repository\org\junit\platform\junit-platform-engine\1.10.2\junit-platform-engine-1.10.2.jar;C:\Users\karthikbanu.kulkarni\.m2\repository\org\mockito\mockito-core\5.7.0\mockito-core-5.7.0.jar;C:\Users\karthikbanu.kulkarni\.m2\repository\net\bytebuddy\byte-buddy-agent\1.14.13\byte-buddy-agent-1.14.13.jar;C:\Users\karthikbanu.kulkarni\.m2\repository\org\objenesis\objenesis\3.3\objenesis-3.3.jar;C:\Users\karthikbanu.kulkarni\.m2\repository\org\mockito\mockito-junit-jupiter\5.7.0\mockito-junit-jupiter-5.7.0.jar;C:\Users\karthikbanu.kulkarni\.m2\repository\org\skyscreamer\jsonassert\1.5.1\jsonassert-1.5.1.jar;C:\Users\karthikbanu.kulkarni\.m2\repository\com\vaadin\external\google\android-json\0.0.20131108.vaadin1\android-json-0.0.20131108.vaadin1.jar;C:\Users\karthikbanu.kulkarni\.m2\repository\org\springframework\spring-core\6.1.6\spring-core-6.1.6.jar;C:\Users\karthikbanu.kulkarni\.m2\repository\org\springframework\spring-jcl\6.1.6\spring-jcl-6.1.6.jar;C:\Users\karthikbanu.kulkarni\.m2\repository\org\springframework\spring-test\6.1.6\spring-test-6.1.6.jar;C:\Users\karthikbanu.kulkarni\.m2\repository\org\xmlunit\xmlunit-core\2.9.1\xmlunit-core-2.9.1.jar;"/>
    <property name="java.vm.vendor" value="Oracle Corporation"/>
    <property name="sun.arch.data.model" value="64"/>
    <property name="user.variant" value=""/>
    <property name="java.vendor.url" value="https://java.oracle.com/"/>
    <property name="user.timezone" value="Asia/Calcutta"/>
    <property name="os.name" value="Windows 11"/>
    <property name="java.vm.specification.version" value="17"/>
    <property name="sun.java.launcher" value="SUN_STANDARD"/>
    <property name="user.country" value="US"/>
    <property name="sun.boot.library.path" value="C:\jdk-17.0.10\bin"/>
    <property name="sun.java.command" value="C:\Users\karthikbanu.kulkarni\AppData\Local\Temp\surefire15228903574079558823\surefirebooter-20240419153105912_3.jar C:\Users\karthikbanu.kulkarni\AppData\Local\Temp\surefire15228903574079558823 2024-04-19T15-31-03_173-jvmRun1 surefire-20240419153105912_1tmp surefire_0-20240419153105912_2tmp"/>
    <property name="jdk.debug" value="release"/>
    <property name="surefire.test.class.path" value="C:\Users\karthikbanu.kulkarni\OneDrive - HCL TECHNOLOGIES LIMITED\GitLab\apache-flink\apache-flink\target\test-classes;C:\Users\karthikbanu.kulkarni\OneDrive - HCL TECHNOLOGIES LIMITED\GitLab\apache-flink\apache-flink\target\classes;C:\Users\karthikbanu.kulkarni\.m2\repository\org\springframework\boot\spring-boot-starter-web\3.2.5\spring-boot-starter-web-3.2.5.jar;C:\Users\karthikbanu.kulkarni\.m2\repository\org\springframework\boot\spring-boot-starter\3.2.5\spring-boot-starter-3.2.5.jar;C:\Users\karthikbanu.kulkarni\.m2\repository\org\springframework\boot\spring-boot-starter-logging\3.2.5\spring-boot-starter-logging-3.2.5.jar;C:\Users\karthikbanu.kulkarni\.m2\repository\ch\qos\logback\logback-classic\1.4.14\logback-classic-1.4.14.jar;C:\Users\karthikbanu.kulkarni\.m2\repository\ch\qos\logback\logback-core\1.4.14\logback-core-1.4.14.jar;C:\Users\karthikbanu.kulkarni\.m2\repository\org\apache\logging\log4j\log4j-to-slf4j\2.21.1\log4j-to-slf4j-2.21.1.jar;C:\Users\karthikbanu.kulkarni\.m2\repository\org\apache\logging\log4j\log4j-api\2.21.1\log4j-api-2.21.1.jar;C:\Users\karthikbanu.kulkarni\.m2\repository\org\slf4j\jul-to-slf4j\2.0.13\jul-to-slf4j-2.0.13.jar;C:\Users\karthikbanu.kulkarni\.m2\repository\jakarta\annotation\jakarta.annotation-api\2.1.1\jakarta.annotation-api-2.1.1.jar;C:\Users\karthikbanu.kulkarni\.m2\repository\org\yaml\snakeyaml\2.2\snakeyaml-2.2.jar;C:\Users\karthikbanu.kulkarni\.m2\repository\org\springframework\boot\spring-boot-starter-json\3.2.5\spring-boot-starter-json-3.2.5.jar;C:\Users\karthikbanu.kulkarni\.m2\repository\com\fasterxml\jackson\core\jackson-databind\2.15.4\jackson-databind-2.15.4.jar;C:\Users\karthikbanu.kulkarni\.m2\repository\com\fasterxml\jackson\core\jackson-annotations\2.15.4\jackson-annotations-2.15.4.jar;C:\Users\karthikbanu.kulkarni\.m2\repository\com\fasterxml\jackson\core\jackson-core\2.15.4\jackson-core-2.15.4.jar;C:\Users\karthikbanu.kulkarni\.m2\repository\com\fasterxml\jackson\datatype\jackson-datatype-jdk8\2.15.4\jackson-datatype-jdk8-2.15.4.jar;C:\Users\karthikbanu.kulkarni\.m2\repository\com\fasterxml\jackson\datatype\jackson-datatype-jsr310\2.15.4\jackson-datatype-jsr310-2.15.4.jar;C:\Users\karthikbanu.kulkarni\.m2\repository\com\fasterxml\jackson\module\jackson-module-parameter-names\2.15.4\jackson-module-parameter-names-2.15.4.jar;C:\Users\karthikbanu.kulkarni\.m2\repository\org\springframework\boot\spring-boot-starter-tomcat\3.2.5\spring-boot-starter-tomcat-3.2.5.jar;C:\Users\karthikbanu.kulkarni\.m2\repository\org\apache\tomcat\embed\tomcat-embed-core\10.1.20\tomcat-embed-core-10.1.20.jar;C:\Users\karthikbanu.kulkarni\.m2\repository\org\apache\tomcat\embed\tomcat-embed-el\10.1.20\tomcat-embed-el-10.1.20.jar;C:\Users\karthikbanu.kulkarni\.m2\repository\org\apache\tomcat\embed\tomcat-embed-websocket\10.1.20\tomcat-embed-websocket-10.1.20.jar;C:\Users\karthikbanu.kulkarni\.m2\repository\org\springframework\spring-web\6.1.6\spring-web-6.1.6.jar;C:\Users\karthikbanu.kulkarni\.m2\repository\org\springframework\spring-beans\6.1.6\spring-beans-6.1.6.jar;C:\Users\karthikbanu.kulkarni\.m2\repository\io\micrometer\micrometer-observation\1.12.5\micrometer-observation-1.12.5.jar;C:\Users\karthikbanu.kulkarni\.m2\repository\io\micrometer\micrometer-commons\1.12.5\micrometer-commons-1.12.5.jar;C:\Users\karthikbanu.kulkarni\.m2\repository\org\springframework\spring-webmvc\6.1.6\spring-webmvc-6.1.6.jar;C:\Users\karthikbanu.kulkarni\.m2\repository\org\springframework\spring-aop\6.1.6\spring-aop-6.1.6.jar;C:\Users\karthikbanu.kulkarni\.m2\repository\org\springframework\spring-context\6.1.6\spring-context-6.1.6.jar;C:\Users\karthikbanu.kulkarni\.m2\repository\org\springframework\spring-expression\6.1.6\spring-expression-6.1.6.jar;C:\Users\karthikbanu.kulkarni\.m2\repository\org\apache\flink\flink-java\1.19.0\flink-java-1.19.0.jar;C:\Users\karthikbanu.kulkarni\.m2\repository\org\apache\flink\flink-core\1.19.0\flink-core-1.19.0.jar;C:\Users\karthikbanu.kulkarni\.m2\repository\org\apache\flink\flink-annotations\1.19.0\flink-annotations-1.19.0.jar;C:\Users\karthikbanu.kulkarni\.m2\repository\org\apache\flink\flink-metrics-core\1.19.0\flink-metrics-core-1.19.0.jar;C:\Users\karthikbanu.kulkarni\.m2\repository\org\apache\flink\flink-shaded-asm-9\9.5-17.0\flink-shaded-asm-9-9.5-17.0.jar;C:\Users\karthikbanu.kulkarni\.m2\repository\org\apache\flink\flink-shaded-jackson\2.14.2-17.0\flink-shaded-jackson-2.14.2-17.0.jar;C:\Users\karthikbanu.kulkarni\.m2\repository\org\snakeyaml\snakeyaml-engine\2.6\snakeyaml-engine-2.6.jar;C:\Users\karthikbanu.kulkarni\.m2\repository\org\apache\commons\commons-text\1.10.0\commons-text-1.10.0.jar;C:\Users\karthikbanu.kulkarni\.m2\repository\com\esotericsoftware\kryo\kryo\2.24.0\kryo-2.24.0.jar;C:\Users\karthikbanu.kulkarni\.m2\repository\com\esotericsoftware\minlog\minlog\1.2\minlog-1.2.jar;C:\Users\karthikbanu.kulkarni\.m2\repository\commons-collections\commons-collections\3.2.2\commons-collections-3.2.2.jar;C:\Users\karthikbanu.kulkarni\.m2\repository\org\apache\commons\commons-compress\1.24.0\commons-compress-1.24.0.jar;C:\Users\karthikbanu.kulkarni\.m2\repository\org\apache\commons\commons-lang3\3.13.0\commons-lang3-3.13.0.jar;C:\Users\karthikbanu.kulkarni\.m2\repository\org\apache\commons\commons-math3\3.6.1\commons-math3-3.6.1.jar;C:\Users\karthikbanu.kulkarni\.m2\repository\com\twitter\chill-java\0.7.6\chill-java-0.7.6.jar;C:\Users\karthikbanu.kulkarni\.m2\repository\org\slf4j\slf4j-api\2.0.13\slf4j-api-2.0.13.jar;C:\Users\karthikbanu.kulkarni\.m2\repository\com\google\code\findbugs\jsr305\1.3.9\jsr305-1.3.9.jar;C:\Users\karthikbanu.kulkarni\.m2\repository\org\apache\flink\flink-streaming-java\1.19.0\flink-streaming-java-1.19.0.jar;C:\Users\karthikbanu.kulkarni\.m2\repository\org\apache\flink\flink-file-sink-common\1.19.0\flink-file-sink-common-1.19.0.jar;C:\Users\karthikbanu.kulkarni\.m2\repository\org\apache\flink\flink-runtime\1.19.0\flink-runtime-1.19.0.jar;C:\Users\karthikbanu.kulkarni\.m2\repository\org\apache\flink\flink-rpc-core\1.19.0\flink-rpc-core-1.19.0.jar;C:\Users\karthikbanu.kulkarni\.m2\repository\org\apache\flink\flink-rpc-akka-loader\1.19.0\flink-rpc-akka-loader-1.19.0.jar;C:\Users\karthikbanu.kulkarni\.m2\repository\org\apache\flink\flink-queryable-state-client-java\1.19.0\flink-queryable-state-client-java-1.19.0.jar;C:\Users\karthikbanu.kulkarni\.m2\repository\org\apache\flink\flink-hadoop-fs\1.19.0\flink-hadoop-fs-1.19.0.jar;C:\Users\karthikbanu.kulkarni\.m2\repository\commons-io\commons-io\2.11.0\commons-io-2.11.0.jar;C:\Users\karthikbanu.kulkarni\.m2\repository\org\apache\flink\flink-shaded-netty\4.1.91.Final-17.0\flink-shaded-netty-4.1.91.Final-17.0.jar;C:\Users\karthikbanu.kulkarni\.m2\repository\org\apache\flink\flink-shaded-zookeeper-3\3.7.1-17.0\flink-shaded-zookeeper-3-3.7.1-17.0.jar;C:\Users\karthikbanu.kulkarni\.m2\repository\org\javassist\javassist\3.24.0-GA\javassist-3.24.0-GA.jar;C:\Users\karthikbanu.kulkarni\.m2\repository\org\xerial\snappy\snappy-java\1.1.10.4\snappy-java-1.1.10.4.jar;C:\Users\karthikbanu.kulkarni\.m2\repository\tools\profiler\async-profiler\2.9\async-profiler-2.9.jar;C:\Users\karthikbanu.kulkarni\.m2\repository\org\lz4\lz4-java\1.8.0\lz4-java-1.8.0.jar;C:\Users\karthikbanu.kulkarni\.m2\repository\org\apache\flink\flink-shaded-guava\31.1-jre-17.0\flink-shaded-guava-31.1-jre-17.0.jar;C:\Users\karthikbanu.kulkarni\.m2\repository\org\apache\flink\flink-connector-datagen\1.19.0\flink-connector-datagen-1.19.0.jar;C:\Users\karthikbanu.kulkarni\.m2\repository\org\apache\flink\flink-clients\1.19.0\flink-clients-1.19.0.jar;C:\Users\karthikbanu.kulkarni\.m2\repository\org\apache\flink\flink-optimizer\1.19.0\flink-optimizer-1.19.0.jar;C:\Users\karthikbanu.kulkarni\.m2\repository\commons-cli\commons-cli\1.5.0\commons-cli-1.5.0.jar;C:\Users\karthikbanu.kulkarni\.m2\repository\org\springframework\boot\spring-boot-devtools\3.2.5\spring-boot-devtools-3.2.5.jar;C:\Users\karthikbanu.kulkarni\.m2\repository\org\springframework\boot\spring-boot\3.2.5\spring-boot-3.2.5.jar;C:\Users\karthikbanu.kulkarni\.m2\repository\org\springframework\boot\spring-boot-autoconfigure\3.2.5\spring-boot-autoconfigure-3.2.5.jar;C:\Users\karthikbanu.kulkarni\.m2\repository\org\projectlombok\lombok\1.18.32\lombok-1.18.32.jar;C:\Users\karthikbanu.kulkarni\.m2\repository\org\springframework\boot\spring-boot-starter-test\3.2.5\spring-boot-starter-test-3.2.5.jar;C:\Users\karthikbanu.kulkarni\.m2\repository\org\springframework\boot\spring-boot-test\3.2.5\spring-boot-test-3.2.5.jar;C:\Users\karthikbanu.kulkarni\.m2\repository\org\springframework\boot\spring-boot-test-autoconfigure\3.2.5\spring-boot-test-autoconfigure-3.2.5.jar;C:\Users\karthikbanu.kulkarni\.m2\repository\com\jayway\jsonpath\json-path\2.9.0\json-path-2.9.0.jar;C:\Users\karthikbanu.kulkarni\.m2\repository\jakarta\xml\bind\jakarta.xml.bind-api\4.0.2\jakarta.xml.bind-api-4.0.2.jar;C:\Users\karthikbanu.kulkarni\.m2\repository\jakarta\activation\jakarta.activation-api\2.1.3\jakarta.activation-api-2.1.3.jar;C:\Users\karthikbanu.kulkarni\.m2\repository\net\minidev\json-smart\2.5.1\json-smart-2.5.1.jar;C:\Users\karthikbanu.kulkarni\.m2\repository\net\minidev\accessors-smart\2.5.1\accessors-smart-2.5.1.jar;C:\Users\karthikbanu.kulkarni\.m2\repository\org\ow2\asm\asm\9.6\asm-9.6.jar;C:\Users\karthikbanu.kulkarni\.m2\repository\org\assertj\assertj-core\3.24.2\assertj-core-3.24.2.jar;C:\Users\karthikbanu.kulkarni\.m2\repository\net\bytebuddy\byte-buddy\1.14.13\byte-buddy-1.14.13.jar;C:\Users\karthikbanu.kulkarni\.m2\repository\org\awaitility\awaitility\4.2.1\awaitility-4.2.1.jar;C:\Users\karthikbanu.kulkarni\.m2\repository\org\hamcrest\hamcrest\2.2\hamcrest-2.2.jar;C:\Users\karthikbanu.kulkarni\.m2\repository\org\junit\jupiter\junit-jupiter\5.10.2\junit-jupiter-5.10.2.jar;C:\Users\karthikbanu.kulkarni\.m2\repository\org\junit\jupiter\junit-jupiter-api\5.10.2\junit-jupiter-api-5.10.2.jar;C:\Users\karthikbanu.kulkarni\.m2\repository\org\opentest4j\opentest4j\1.3.0\opentest4j-1.3.0.jar;C:\Users\karthikbanu.kulkarni\.m2\repository\org\junit\platform\junit-platform-commons\1.10.2\junit-platform-commons-1.10.2.jar;C:\Users\karthikbanu.kulkarni\.m2\repository\org\apiguardian\apiguardian-api\1.1.2\apiguardian-api-1.1.2.jar;C:\Users\karthikbanu.kulkarni\.m2\repository\org\junit\jupiter\junit-jupiter-params\5.10.2\junit-jupiter-params-5.10.2.jar;C:\Users\karthikbanu.kulkarni\.m2\repository\org\junit\jupiter\junit-jupiter-engine\5.10.2\junit-jupiter-engine-5.10.2.jar;C:\Users\karthikbanu.kulkarni\.m2\repository\org\junit\platform\junit-platform-engine\1.10.2\junit-platform-engine-1.10.2.jar;C:\Users\karthikbanu.kulkarni\.m2\repository\org\mockito\mockito-core\5.7.0\mockito-core-5.7.0.jar;C:\Users\karthikbanu.kulkarni\.m2\repository\net\bytebuddy\byte-buddy-agent\1.14.13\byte-buddy-agent-1.14.13.jar;C:\Users\karthikbanu.kulkarni\.m2\repository\org\objenesis\objenesis\3.3\objenesis-3.3.jar;C:\Users\karthikbanu.kulkarni\.m2\repository\org\mockito\mockito-junit-jupiter\5.7.0\mockito-junit-jupiter-5.7.0.jar;C:\Users\karthikbanu.kulkarni\.m2\repository\org\skyscreamer\jsonassert\1.5.1\jsonassert-1.5.1.jar;C:\Users\karthikbanu.kulkarni\.m2\repository\com\vaadin\external\google\android-json\0.0.20131108.vaadin1\android-json-0.0.20131108.vaadin1.jar;C:\Users\karthikbanu.kulkarni\.m2\repository\org\springframework\spring-core\6.1.6\spring-core-6.1.6.jar;C:\Users\karthikbanu.kulkarni\.m2\repository\org\springframework\spring-jcl\6.1.6\spring-jcl-6.1.6.jar;C:\Users\karthikbanu.kulkarni\.m2\repository\org\springframework\spring-test\6.1.6\spring-test-6.1.6.jar;C:\Users\karthikbanu.kulkarni\.m2\repository\org\xmlunit\xmlunit-core\2.9.1\xmlunit-core-2.9.1.jar;"/>
    <property name="sun.cpu.endian" value="little"/>
    <property name="user.home" value="C:\Users\karthikbanu.kulkarni"/>
    <property name="user.language" value="en"/>
    <property name="java.specification.vendor" value="Oracle Corporation"/>
    <property name="java.version.date" value="2024-01-16"/>
    <property name="java.home" value="C:\jdk-17.0.10"/>
    <property name="file.separator" value="\"/>
    <property name="basedir" value="C:\Users\karthikbanu.kulkarni\OneDrive - HCL TECHNOLOGIES LIMITED\GitLab\apache-flink\apache-flink"/>
    <property name="java.vm.compressedOopsMode" value="Zero based"/>
    <property name="line.separator" value="&#10;"/>
    <property name="java.vm.specification.vendor" value="Oracle Corporation"/>
    <property name="java.specification.name" value="Java Platform API Specification"/>
    <property name="FILE_LOG_CHARSET" value="windows-1252"/>
    <property name="java.awt.headless" value="true"/>
    <property name="surefire.real.class.path" value="C:\Users\karthikbanu.kulkarni\AppData\Local\Temp\surefire15228903574079558823\surefirebooter-20240419153105912_3.jar"/>
    <property name="user.script" value=""/>
    <property name="sun.management.compiler" value="HotSpot 64-Bit Tiered Compilers"/>
    <property name="java.runtime.version" value="17.0.10+11-LTS-240"/>
    <property name="user.name" value="karthikbanu.kulkarni"/>
    <property name="path.separator" value=";"/>
    <property name="os.version" value="10.0"/>
    <property name="java.runtime.name" value="Java(TM) SE Runtime Environment"/>
    <property name="file.encoding" value="Cp1252"/>
    <property name="java.vm.name" value="Java HotSpot(TM) 64-Bit Server VM"/>
    <property name="localRepository" value="C:\Users\karthikbanu.kulkarni\.m2\repository"/>
    <property name="java.vendor.url.bug" value="https://bugreport.java.com/bugreport/"/>
    <property name="java.io.tmpdir" value="C:\Users\KARTHI~1.KUL\AppData\Local\Temp\"/>
    <property name="java.version" value="17.0.10"/>
    <property name="user.dir" value="C:\Users\karthikbanu.kulkarni\OneDrive - HCL TECHNOLOGIES LIMITED\GitLab\apache-flink\apache-flink"/>
    <property name="os.arch" value="amd64"/>
    <property name="java.vm.specification.name" value="Java Virtual Machine Specification"/>
    <property name="PID" value="6748"/>
    <property name="sun.os.patch.level" value=""/>
    <property name="CONSOLE_LOG_CHARSET" value="windows-1252"/>
    <property name="native.encoding" value="Cp1252"/>
    <property name="java.library.path" value="C:\jdk-17.0.10\bin;C:\WINDOWS\Sun\Java\bin;C:\WINDOWS\system32;C:\WINDOWS;C:\WINDOWS\system32;C:\WINDOWS;C:\WINDOWS\System32\Wbem;C:\WINDOWS\System32\WindowsPowerShell\v1.0\;C:\WINDOWS\System32\OpenSSH\;C:\Windows\CCM;C:\Program Files\MySQL\MySQL Shell 8.0\bin\;C:\Users\karthikbanu.kulkarni\AppData\Local\Microsoft\WindowsApps;C:\Users\karthikbanu.kulkarni\AppData\Local\Programs\Git\cmd;C:\jdk-17.0.10\bin;C:\apache-maven-3.9.6\bin;."/>
    <property name="java.vm.info" value="mixed mode, sharing"/>
    <property name="java.vendor" value="Oracle Corporation"/>
    <property name="java.vm.version" value="17.0.10+11-LTS-240"/>
    <property name="sun.io.unicode.encoding" value="UnicodeLittle"/>
    <property name="java.class.version" value="61.0"/>
    <property name="LOGGED_APPLICATION_NAME" value="[apache-flink] "/>
  </properties>
  <testcase name="contextLoads" classname="org.training.apacheflink.ApacheFlinkApplicationTests" time="5.65">
    <system-out><![CDATA[15:31:11.691 [main] INFO org.springframework.test.context.support.AnnotationConfigContextLoaderUtils -- Could not detect default configuration classes for test class [org.training.apacheflink.ApacheFlinkApplicationTests]: ApacheFlinkApplicationTests does not declare any static, non-private, non-final, nested classes annotated with @Configuration.
15:31:11.957 [main] INFO org.springframework.boot.test.context.SpringBootTestContextBootstrapper -- Found @SpringBootConfiguration org.training.apacheflink.ApacheFlinkApplication for test class org.training.apacheflink.ApacheFlinkApplicationTests
15:31:12.335 [main] INFO org.springframework.boot.devtools.restart.RestartApplicationListener -- Restart disabled due to context in which it is running

  .   ____          _            __ _ _
 /\\ / ___'_ __ _ _(_)_ __  __ _ \ \ \ \
( ( )\___ | '_ | '_| | '_ \/ _` | \ \ \ \
 \\/  ___)| |_)| | | | | || (_| |  ) ) ) )
  '  |____| .__|_| |_|_| |_\__, | / / / /
 =========|_|==============|___/=/_/_/_/
 :: Spring Boot ::                (v3.2.5)

2024-04-19T15:31:13.019+05:30  INFO 6748 --- [apache-flink] [           main] o.t.a.ApacheFlinkApplicationTests        : Starting ApacheFlinkApplicationTests using Java 17.0.10 with PID 6748 (started by karthikbanu.kulkarni in C:\Users\karthikbanu.kulkarni\OneDrive - HCL TECHNOLOGIES LIMITED\GitLab\apache-flink\apache-flink)
2024-04-19T15:31:13.019+05:30  INFO 6748 --- [apache-flink] [           main] o.t.a.ApacheFlinkApplicationTests        : No active profile set, falling back to 1 default profile: "default"
2024-04-19T15:31:15.809+05:30  INFO 6748 --- [apache-flink] [           main] o.t.a.ApacheFlinkApplicationTests        : Started ApacheFlinkApplicationTests in 3.507 seconds (process running for 6.903)
]]></system-out>
  </testcase>
</testsuite>